POSICION,TYPE,TYPE_FIELD,NAME_HOST,IN,INPUT,OUT,OUTPUT,LONGITUD,X1,X2,CHECK_RESPONSE,CHECKPOINT
1,HEADER,C,LONG                          ,x,hdLong,,,4,1,5,,
2,HEADER,C,TRANS                         ,x,hdTransaction,,,4,5,9,,
3,HEADER,CN,MSGNO                         ,x,hdCodeHostResult,x,hdCodeHostResult,4,9,13,R,
4,HEADER,N,ESP1                          ,x,hdEsp1,,,1,13,14,,
5,HEADER,CN,PGM                           ,,hdPgm,,,8,14,22,,
6,HEADER,N,ESP2                          ,,hdEsp2,,,1,22,23,,
7,HEADER,CN,MSG                           ,,hdMessageHostResult,x,hdMessageHostResult,61,23,84,R,
8,HEADER,C,CUSUARIO                      ,x,hdUser,,,4,84,88,,
9,HEADER,N,FPROCE-AA                     ,x,hdYear,,,4,88,92,,
10,HEADER,N,FPROCE-MM                     ,x,hdMonth,,,2,92,94,,
11,HEADER,N,FPROCE-DD                     ,x,hdDay,,,2,94,96,,
12,HEADER,C,TREQUEST                      ,x,hdRequest,,,1,96,97,,
13,HEADER,C,FORMA                         ,x,hdForma,,,1,97,98,,
14,HEADER,N,OFIAPERT                      ,x,hdOfficeOpen,,,4,98,102,,
15,HEADER,N,OFIPROCE                      ,x,hdOfficeProcess,,,4,102,106,,
16,HEADER,N,NSECUENCIAL                   ,x,hdSequential,,,2,106,108,,
17,HEADER,CN,KTIPO                         ,x,hdType,,,2,108,110,,
18,HEADER,CN,PROGRAM                       ,x,hdProgram,,,8,110,118,,
19,HEADER,N,TERROR                        ,x,hdError,,,1,118,119,,
20,HEADER,N,NREGIST-LOTE                  ,x,hdErrorLote,,,6,119,125,,
21,HEADER,CN0,FILLER1,x,hdFill,,,19,125,144,,
25,BODY-DATACLIENTE,N,CINTERNO-CIC                  ,x,customerCic,x,customerCic,12,144,156,R,
26,BODY-DATACLIENTE,C,COFI-INGRESO                  ,x,inputCodeOffice,,,4,156,160,,
27,BODY-DATACLIENTE,C,COFI-OPERAC                   ,x,operationalCodeOffice,,,4,160,164,,
28,BODY-DATACLIENTE,N,TDCMTO-ID                     ,x,typeDocument,,,1,164,165,,
29,BODY-DATACLIENTE,N,NDCMTO-ID                     ,x,numberDocument,,,12,165,177,,
30,BODY-DATACLIENTE,C,GMENOR-EDAD                   ,x,flagUnderAge,,,1,177,178,,
31,BODY-DATACLIENTE,C,GINTERDICTO                   ,x,flagInterdicto,,,1,178,179,,
32,BODY-DATACLIENTE,CN,APE-PATERNO                   ,x,lastName,,,50,179,229,,
33,BODY-DATACLIENTE,CN,APE-MATERNO                   ,x,motherLastName,,,50,229,279,,
34,BODY-DATACLIENTE,CN,APE-CASADA                    ,x,marriedLastName,,,50,279,329,,
35,BODY-DATACLIENTE,CN,APRIMERO                      ,x,firstName,,,50,329,379,,
36,BODY-DATACLIENTE,CN,ASEGUNDO                      ,x,secondName,,,50,379,429,,
37,BODY-DATACLIENTE,C,CSEXO-CL                      ,x,codeGender,,,1,429,430,,
38,BODY-DATACLIENTE,C,CESTADO-CIVIL-CL              ,x,codeCivilStatus,,,1,430,431,,
39,BODY-DATACLIENTE,C,NANOS-EST                     ,x,yearOfStudy,,,1,431,432,,
40,BODY-DATACLIENTE,C,NESTATURA                     ,x,customerHeight,,,3,432,435,,
41,BODY-DATACLIENTE,C,ANOMBRE-PADRE                 ,x,fathersName,,,15,435,450,,
42,BODY-DATACLIENTE,C,ANOMBRE-MADRE                 ,x,mothersName,,,15,450,465,,
43,BODY-DATACLIENTE,C,CGRADO-INSTRUC                ,,codeScaleOfInstruction,,,1,465,466,,
44,BODY-DATACLIENTE,C,FNACIMIENTO                   ,x,birthdate,,,8,466,474,,
45,BODY-DATACLIENTE,N,CCLIENTE-INTER                ,x,codeInternalCustomer,,,6,474,480,,
46,BODY-DATACLIENTE,N,CGRUPO-INTERF                 ,x,codeInternalGroup,,,3,480,483,,
47,BODY-DATACLIENTE,C,CSITUAC-RELAC                 ,x,statusRelationship,,,1,483,484,,
48,BODY-DATACLIENTE,CN,NTELEFONO                     ,x,numberPhone,,,12,484,496,,
49,BODY-DATACLIENTE,C,COCUPACION                    ,x,codeCustomerEmployment,,,5,496,501,,
50,BODY-DATACLIENTE,CN0,CENTIDAD                      ,x,codeEntityCustomer,,,6,501,507,,
51,BODY-DATACLIENTE,C,FILL2                         ,x,customerFill,,,16,507,523,,
52,BODY-DATACLIENTEDIRECCION,N,TVIA                          ,x,typeRoad,,,1,523,524,,
53,BODY-DATACLIENTEDIRECCION,CN,ATVIA                         ,x,typeAddress,,,20,524,544,,
54,BODY-DATACLIENTEDIRECCION,C,AVIA                          ,x,descriptionRoad,,,60,544,604,,
55,BODY-DATACLIENTEDIRECCION,CN,NNUMERO                       ,x,addressNumber,,,30,604,634,,
56,BODY-DATACLIENTEDIRECCION,CN,NBLOQUE                       ,x,blockNumber,,,30,634,664,,
57,BODY-DATACLIENTEDIRECCION,CN,NMANZANA                      ,x,squareNumber,,,30,664,694,,
58,BODY-DATACLIENTEDIRECCION,CN,NLOTE                         ,x,numberLot,,,30,694,724,,
59,BODY-DATACLIENTEDIRECCION,CN,NPISO                         ,x,numberFlat,,,30,724,754,,
60,BODY-DATACLIENTEDIRECCION,CN,NDPTO-INTER                   ,x,numberDepartment,,,30,754,784,,
61,BODY-DATACLIENTEDIRECCION,CN,APTO-REFEREN                  ,x,addressReference,,,45,784,829,,
62,BODY-DATACLIENTEDIRECCION,C,FILL3                         ,x,addressFill,,,5,829,834,,
63,BODY-DATACLIENTECUENTA,N,CPRODUCTO                     ,x,codeProduct,,,2,834,836,,
64,BODY-DATACLIENTECUENTA,N,NCUENTA                       ,x,accountNumber,,,18,836,854,,
65,BODY-DATACLIENTECUENTA,C,CMONEDA                       ,x,typeMoney,,,3,854,857,,
66,BODY-DATACLIENTECUENTA,CN,ACORTO-CTA                    ,x,accountShortName,,,40,857,897,,
67,BODY-DATACLIENTECUENTA,CN,ALARGO-CTA                    ,x,accountName,,,150,897,1047,,
68,BODY-DATACLIENTECUENTA,N,ITEM-DIR-DOM                  ,x,itemAddressDom,,,5,1047,1052,,
69,BODY-DATACLIENTECUENTA,N,ITEM-DIR-COR                  ,x,itemAddressCore,,,5,1052,1057,,
70,BODY-DATACLIENTECUENTA,N,ITEM-DIR-LAB                  ,x,itemAddressWorkCenter,,,5,1057,1062,,
71,BODY-DATACLIENTECUENTA,N,ITEM-DIR-FIS                  ,x,itemAddressFiscal,,,5,1062,1067,,
72,BODY-DATACLIENTECUENTA,C,CSITUACION-CTA                ,x,accountSituationCode,,,2,1067,1069,,
73,BODY-DATACLIENTECUENTA,C,TCUENTA                       ,x,typeAccount,,,2,1069,1071,,
74,BODY-DATACLIENTECUENTA,C,GUOB,x,flagAccountUOB,,,1,1071,1072,,
75,BODY-DATACLIENTECUENTA,C,TUBIGEO,x,typeUbigee,,,1,1072,1073,,
76,BODY-DATACLIENTECUENTA,CN,CUBIGEO,x,codeUbigee,,,6,1073,1079,,
77,BODY-DATACLIENTECUENTA,C,FILL4                      ,,customerAccountFill,,,25,1079,1104,,
78,BODY-DATACLIENTECUENTA,C,CMEDIO_ENVIO                   ,x,shippingMeansCode,,,2,1104,1106,,
79,BODY-DATACLIENTECUENTA,C,TIP-EVENTO,x,typeEvent,,,2,1106,1108,,
80,BODY-DATACLIENTECUENTA,C,MOT-EVENTO,x,reasonEvent,,,1,1108,1109,,
81,BODY-DATACLIENTECUENTA,C,RZN-ALTA,x,creationReasonCode,,,3,1109,1112,,
82,BODY-DATACLIENTECUENTA,C,LST-NEGRA,x,flagBlacklist,,,1,1112,1113,,
83,BODY-DATACLIENTECUENTA,N,FEC-PACRDO,x,firstAgreementDate,,,8,1113,1121,,
84,BODY-DATACUENTA,N,FAPERT,x,fapert,,,8,1121,1129,,
85,BODY-DATACUENTA,N,CSUBCTA,x,csubcta,,,6,1129,1135,,
86,BODY-DATACUENTA,N,CDEPEND,x,cdepend,,,4,1135,1139,,
87,BODY-DATACUENTA,N,CCLIENTE,x,ccliente,,,6,1139,1145,,
88,BODY-DATACUENTA,N,CGRUPO,x,cgrupo,,,3,1145,1148,,
89,BODY-DATACUENTA,N,CCUENTA,x,ccuenta,,,11,1148,1159,,
90,BODY-DATACUENTA,C,CMONEDA2                   ,x,coinCode,,,3,1159,1162,,
91,BODY-DATACUENTA,N,CODRUC,x,numberRUC,,,11,1162,1173,,
92,BODY-DATACUENTA,N,TIPO-APER,x,typeAper,,,1,1173,1174,,
93,BODY-DATACUENTA,CN0,CCAL,x,ccal,,,2,1174,1176,,
94,BODY-DATACUENTA,N,TPER,x,tper,,,1,1176,1177,,
95,BODY-DATACUENTA,CN,NOMBRES-CLI,x,nombresCli,,,70,1177,1247,,
96,BODY-DATACUENTA,CN,DIRECCION-CLI,x,direccionCli,,,70,1247,1317,,
97,BODY-DATACUENTA,CN,ACORTO-CLI,x,acortoCli,,,35,1317,1352,,
98,BODY-DATACUENTA,CN,NOMBRES-GRP ,x,nombresGRP,,,70,1352,1422,,
99,BODY-DATACUENTA,CN,DIRECCION-GRP,x,direccionGRP,,,70,1422,1492,,
100,BODY-DATACUENTA,CN,ACORTO-GRP,x,acortoGRP,,,35,1492,1527,,
101,BODY-DATACUENTA,C,ASIG,x,asig,,,15,1527,1542,,
102,BODY-DATACUENTA,C,CUBI,x,cubi,,,6,1542,1548,,
103,BODY-DATACUENTA,N,CRUC,x,cruc,,,11,1548,1559,,
104,BODY-DATACUENTA,N,CRES,x,cres,,,1,1559,1560,,
105,BODY-DATACUENTA,N,CSEC,x,csec,,,3,1560,1563,,
106,BODY-DATACUENTA,N,LELE,x,lele,,,8,1563,1571,,
107,BODY-DATACUENTA,CN,NREG,x,nreg,,,15,1571,1586,,
108,BODY-DATACUENTA,N,CSBS,x,csbs,,,10,1586,1596,,
109,BODY-DATACUENTA,C,CSCT,x,csct,,,3,1596,1599,,
110,BODY-DATACUENTA,N,CNAC,x,cnac,,,1,1599,1600,,
111,BODY-DATACUENTA,CN,CACT,x,cact,,,4,1600,1604,,
112,BODY-DATACUENTA,N,CEXT,x,cext,,,9,1604,1613,,
113,BODY-DATACUENTA,N,TELF,x,telf,,,7,1613,1620,,
114,BODY-DATACUENTA,N,ANEX,x,anex,,,4,1620,1624,,
115,BODY-DATACUENTA,N,NFAX,,nfax,,,7,1624,1631,,
116,BODY-DATACUENTA,CN0,FILL5,x,filler1,,,11,1631,1642,,
117,BODY-DATACUENTA,N,CEMP,,cemp,,,1,1642,1643,,
118,BODY-DATACUENTA,C,CPOS,x,cpos,,,6,1643,1649,,
119,BODY-DATACUENTA,N,CECO,x,ceco,,,4,1649,1653,,
120,BODY-DATACUENTA,CN,ACACT,x,acact,,,17,1653,1670,,
121,BODY-DATACUENTA,CN0,AEMP,x,aemp,,,17,1670,1687,,
122,BODY-DATACUENTA,CN,ACONTRIB,x,acontrib,,,30,1687,1717,,
123,BODY-DATACUENTA,CN,ASEC,x,asec,,,17,1717,1734,,
124,BODY-DATACUENTA,CN,ACORTO-CTA2,x,acortoCta2                    ,,,35,1734,1769,,
125,BODY-DATACUENTA,N,SFIN,x,sfin,,,15,1769,1784,,
126,BODY-DATACUENTA,C,FILL6,x,filler2,,,150,1784,1934,,
127,NESTED-CustomerAddress      ,          ,NESTED-CustomerAddress      ,  ,customerAddress                ,   ,                   ,        ,,    ,              ,N
128,NESTED-CustomerAccount      ,          ,NESTED-CustomerAccount      ,  ,customerAccount                ,   ,                   ,        ,    ,    ,              ,N
129,NESTED-CustomerAccountData,          ,NESTED-CustomerAccountData,  ,customerAccountData          ,   ,                   ,        ,    ,    ,              ,N
