POSICION,TYPE                        ,TYPE_FIELD,NAME_HOST                   ,IN,INPUT                          ,OUT,OUTPUT             ,LONGITUD,X1  ,X2  ,CHECK_RESPONSE,CHECKPOINT
1,HEADER                      ,CN        ,LONG                        ,X ,hdLong                         ,   ,                   ,4,1,5,              ,
2,HEADER                      ,CN        ,TRANS                       ,X ,hdTransaction                  ,   ,                   ,4,5,9,              ,
3,HEADER                      ,CN0       ,MSGNO                       ,X ,hdCodeHostResult               ,x  ,hdCodeHostResult   ,4,9,13,R             ,
4,HEADER                      ,CN        ,ESP1                        ,X ,hdEsp1                         ,   ,                   ,1,13,14,              ,
5,HEADER                      ,CN        ,PGM                         ,X ,hdPgm                          ,   ,                   ,8,14,22,              ,
6,HEADER                      ,CN        ,ESP2                        ,X ,hdEsp2                         ,   ,                   ,1,22,23,              ,
7,HEADER                      ,CN        ,MSG                         ,X ,hdMessageHostResult            ,x  ,hdMessageHostResult,61,23,84,R             ,
8,HEADER                      ,CN        ,CUSUARIO                    ,X ,hdUser                         ,   ,                   ,4,84,88,              ,
9,HEADER                      ,CN        ,FPROCE-AA                   ,X ,hdYear                         ,   ,                   ,4,88,92,              ,
10,HEADER                      ,CN        ,FPROCE-MM                   ,X ,hdMonth                        ,   ,                   ,2,92,94,              ,
11,HEADER                      ,CN        ,FPROCE-DD                   ,X ,hdDay                          ,   ,                   ,2,94,96,              ,
12,HEADER                      ,CN        ,TREQUEST                    ,X ,hdRequest                      ,   ,                   ,1,96,97,              ,
13,HEADER                      ,CN        ,FORMA                       ,X ,hdForma                        ,   ,                   ,1,97,98,              ,
14,HEADER                      ,N         ,OFIAPERT                    ,X ,hdOfficeOpen                   ,   ,                   ,4,98,102,              ,
15,HEADER                      ,N         ,OFIPROCE                    ,X ,hdOfficeProcess                ,   ,                   ,4,102,106,              ,
16,HEADER                      ,N         ,NSECUENCIAL                 ,X ,hdSequential                   ,   ,                   ,2,106,108,              ,
17,HEADER                      ,CN        ,KTIPO                       ,X ,hdType                         ,   ,                   ,2,108,110,              ,
18,HEADER                      ,CN        ,PROGRAM                     ,X ,hdProgram                      ,   ,                   ,8,110,118,              ,
19,HEADER                      ,N         ,TERROR                      ,X ,hdError                        ,   ,                   ,1,118,119,              ,
20,HEADER                      ,N         ,NREGIST-LOTE                ,X ,hdErrorLote                    ,   ,                   ,6,119,125,              ,
21,HEADER                      ,C         ,MSGNO1                      ,X ,hdMessage01                    ,   ,                   ,4,125,129,              ,
22,HEADER                      ,N         ,HPROCE                      ,X ,hdProcess                      ,   ,                   ,6,129,135,              ,
23,HEADER                      ,N         ,TASKN                       ,X ,hdTask                         ,   ,                   ,7,135,142,              ,
24,HEADER                      ,C         ,TMODIF                      ,X ,hdModification                 ,   ,                   ,2,142,144,              ,
25,BODY-DATACLIENTE            ,N         ,CINTERNO-CIC                ,X ,customerCic                    ,   ,                   ,12,144,156,              ,
26,BODY-DATACLIENTE            ,N         ,COFI-INGRESO                ,X ,inputCodeOffice                ,   ,                   ,4,156,160,              ,
27,BODY-DATACLIENTE            ,N         ,COFI-OPERAC                 ,X ,operationalCodeOffice          ,   ,                   ,4,160,164,              ,
28,BODY-DATACLIENTE            ,N         ,TDCMTO-ID                   ,X ,typeDocument                   ,   ,                   ,1,164,165,              ,
29,BODY-DATACLIENTE            ,N         ,NDCMTO-ID                   ,X ,numberDocument                 ,   ,                   ,12,165,177,              ,
30,BODY-DATACLIENTE            ,N         ,GMENOR-EDAD                 ,X ,flagUnderAge                   ,   ,                   ,1,177,178,              ,
31,BODY-DATACLIENTE            ,N         ,GINTERDICTO                 ,X ,flagInterdicto                 ,   ,                   ,1,178,179,              ,
32,BODY-DATACLIENTE            ,CN        ,APE-PATERNO                 ,X ,lastName                       ,   ,                   ,50,179,229,              ,
33,BODY-DATACLIENTE            ,CN        ,APE-MATERNO                 ,X ,motherLastName                 ,   ,                   ,50,229,279,              ,
34,BODY-DATACLIENTE            ,CN        ,APE-CASADA                  ,X ,marriedLastName                ,   ,                   ,50,279,329,              ,
35,BODY-DATACLIENTE            ,CN        ,APRIMERO                    ,X ,firstName                      ,   ,                   ,50,329,379,              ,
36,BODY-DATACLIENTE            ,CN        ,ASEGUNDO                    ,X ,secondName                     ,   ,                   ,50,379,429,              ,
37,BODY-DATACLIENTE            ,CN        ,CSEXO-CL                    ,X ,codeGender                     ,   ,                   ,1,429,430,              ,
38,BODY-DATACLIENTE            ,N         ,CESTADO-CIVIL-CL            ,X ,codeCivilStatus                ,   ,                   ,1,430,431,              ,
39,BODY-DATACLIENTE            ,CN        ,NANOS-EST                   ,X ,yearsOfStudy                   ,   ,                   ,1,431,432,              ,
40,BODY-DATACLIENTE            ,CN        ,NESTATURA                   ,X ,customerHeight                 ,   ,                   ,3,432,435,              ,
41,BODY-DATACLIENTE            ,CN        ,ANOMBRE-PADRE               ,X ,fathersName                    ,   ,                   ,15,435,450,              ,
42,BODY-DATACLIENTE            ,CN        ,ANOMBRE-MADRE               ,X ,mothersName                    ,   ,                   ,15,450,465,              ,
43,BODY-DATACLIENTE            ,N         ,CGRADO-INSTRUC              ,X ,codeScaleOfInstruction         ,   ,                   ,1,465,466,              ,
44,BODY-DATACLIENTE            ,CN        ,FNACIMIENTO                 ,X ,birthdate                      ,   ,                   ,8,466,474,              ,
45,BODY-DATACLIENTE            ,N         ,CCLIENTE-INTER              ,X ,codeInternalCustomer           ,   ,                   ,6,474,480,              ,
46,BODY-DATACLIENTE            ,N         ,CGRUPO-INTERF               ,X ,codeInternalGroup              ,   ,                   ,3,480,483,              ,
47,BODY-DATACLIENTE            ,CN        ,CSITUAC-RELAC               ,X ,statusRelationship             ,   ,                   ,1,483,484,              ,
48,BODY-DATACLIENTE            ,CN0       ,NTELEFONO                   ,X ,numberPhone                    ,   ,                   ,12,484,496,              ,
49,BODY-DATACLIENTE            ,N         ,COCUPACION                  ,X ,codeCustomerEmployment         ,   ,                   ,5,496,501,              ,
50,BODY-DATACLIENTE            ,N         ,CENTIDAD                    ,X ,codeEntityCustomer             ,   ,                   ,6,501,507,              ,
51,BODY-DATACLIENTE            ,N         ,FILL2                       ,  ,customerFill                   ,   ,                   ,16,507,523,              ,
52,BODY-DATACLIENTEDIRECCION   ,CN        ,TVIA                        ,X ,typeRoad                       ,   ,                   ,1,523,524,              ,
53,BODY-DATACLIENTEDIRECCION   ,CN        ,ATVIA                       ,X ,typeAddress                    ,   ,                   ,20,524,544,              ,
54,BODY-DATACLIENTEDIRECCION   ,CN        ,AVIA                        ,X ,roadDescription                ,   ,                   ,60,544,604,              ,
55,BODY-DATACLIENTEDIRECCION   ,CN        ,NNUMERO                     ,X ,addressNumber                  ,   ,                   ,30,604,634,              ,
56,BODY-DATACLIENTEDIRECCION   ,CN        ,NBLOQUE                     ,X ,blockNumber                    ,   ,                   ,30,634,664,              ,
57,BODY-DATACLIENTEDIRECCION   ,CN        ,NMANZANA                    ,X ,squareNumber                   ,   ,                   ,30,664,694,              ,
58,BODY-DATACLIENTEDIRECCION   ,CN        ,NLOTE                       ,X ,numberLot                      ,   ,                   ,30,694,724,              ,
59,BODY-DATACLIENTEDIRECCION   ,CN        ,NPISO                       ,X ,numberFlat                     ,   ,                   ,30,724,754,              ,
60,BODY-DATACLIENTEDIRECCION   ,CN        ,NDPTO-INTER                 ,X ,numberDepartment               ,   ,                   ,30,754,784,              ,
61,BODY-DATACLIENTEDIRECCION   ,CN        ,APTO-REFEREN                ,X ,addressReference                ,   ,                   ,45,784,829,              ,
62,BODY-DATACLIENTEDIRECCION   ,N         ,FILL3                       ,  ,addressFill                     ,   ,                   ,5,829,834,              ,
63,BODY-DATACLIENTECUENTA      ,N         ,CPRODUCTO                   ,X ,codeProduct                    ,   ,                   ,2,834,836,              ,
64,BODY-DATACLIENTECUENTA      ,N         ,NCUENTA                     ,X ,accountNumber                  ,   ,                   ,18,836,854,              ,
65,BODY-DATACLIENTECUENTA      ,CN        ,CMONEDA                     ,X ,typeMoney                      ,   ,                   ,3,854,857,              ,
66,BODY-DATACLIENTECUENTA      ,CN        ,ACORTO-CTA                  ,X ,accountShortName               ,   ,                   ,40,857,897,              ,
67,BODY-DATACLIENTECUENTA      ,CN        ,ALARGO-CTA                  ,X ,accountName                    ,   ,                   ,150,897,1047,              ,
68,BODY-DATACLIENTECUENTA      ,N         ,ITEM-DIR-DOM                ,X ,itemAddressDom                 ,   ,                   ,5,1047,1052,              ,
69,BODY-DATACLIENTECUENTA      ,N         ,ITEM-DIR-COR                ,X ,itemAddressCore                ,   ,                   ,5,1052,1057,              ,
70,BODY-DATACLIENTECUENTA      ,N         ,ITEM-DIR-LAB                ,X ,itemAddressWorkCenter          ,   ,                   ,5,1057,1062,              ,
71,BODY-DATACLIENTECUENTA      ,N         ,ITEM-DIR-FIS                ,X ,itemAddressFiscal              ,   ,                   ,5,1062,1067,              ,
72,BODY-DATACLIENTECUENTA      ,CN        ,CSITUACION-CTA              ,X ,accountSituationCode           ,   ,                   ,2,1067,1069,              ,
73,BODY-DATACLIENTECUENTA      ,CN        ,TCUENTA                     ,X ,typeAccount                    ,   ,                   ,2,1069,1071,              ,
74,BODY-DATACLIENTECUENTA      ,CN        ,GUOB                        ,X ,flagAccountUOB                 ,   ,                   ,1,1071,1072,              ,
75,BODY-DATACLIENTECUENTA      ,N         ,TUBIGEO                     ,X ,typeUbigee                     ,   ,                   ,1,1072,1073,              ,
76,BODY-DATACLIENTECUENTA      ,N         ,CUBIGEO                     ,X ,codeUbigee                     ,   ,                   ,6,1073,1079,              ,
77,BODY-DATACLIENTECUENTA      ,CN        ,FILL4                       ,  ,customerAccountFill            ,   ,                   ,25,1079,1104,              ,
78,BODY-DATACLIENTECUENTA      ,CN        ,CMEDIO-ENVIO                ,X ,shippingMeansCode              ,   ,                   ,2,1104,1106,              ,
79,BODY-DATACLIENTECUENTA      ,CN        ,TIP-EVENTO                  ,X ,typeEvent                      ,   ,                   ,2,1106,1108,              ,
80,BODY-DATACLIENTECUENTA      ,CN        ,MOT-EVENTO                  ,X ,reasonEvent                    ,   ,                   ,1,1108,1109,              ,
81,BODY-DATACLIENTECUENTA      ,N         ,RZN-ALTA                    ,X ,creationReasonCode             ,   ,                   ,3,1109,1112,              ,
82,BODY-DATACLIENTECUENTA      ,CN        ,LST-NEGRA                   ,X ,flagBlacklist                  ,   ,                   ,1,1112,1113,              ,
83,BODY-DATACLIENTECUENTA      ,CN        ,FEC-PACRDO                  ,X ,firstAgreementDate             ,   ,                   ,8,1113,1121,              ,
84,BODY-DATACUENTA             ,N         ,CTIPO-EVENTO                ,X ,typeEventAccount               ,   ,                   ,2,1121,1123,              ,
85,BODY-DATACUENTA             ,CN        ,CEJECT-NEG                  ,X ,businessExecutiveCode          ,   ,                   ,6,1123,1129,              ,
86,BODY-DATACUENTA             ,N         ,CTIPO-PERSONA               ,X ,typePerson                     ,   ,                   ,1,1129,1130,              ,
87,BODY-DATACUENTA             ,CN        ,TDCMTO-REPORT               ,X ,typeDocumentReport             ,   ,                   ,2,1130,1132,              ,
88,BODY-DATACUENTA             ,CN        ,NDCMTO-REPORT               ,X ,numberDocumentReport           ,   ,                   ,12,1132,1144,              ,
89,BODY-DATACUENTA             ,CN        ,ANOMBRES-REPOR              ,X ,fullNameReport                 ,   ,                   ,150,1144,1294,              ,
90,BODY-DATACUENTA             ,CN        ,TCLTE                       ,X ,typeCustomer                   ,   ,                   ,2,1294,1296,              ,
91,BODY-DATACUENTA             ,N         ,CRESIDENC-PAIS              ,X ,flagCountryResidence           ,   ,                   ,1,1296,1297,              ,
92,BODY-DATACUENTA             ,N         ,GNACIONALIDAD               ,X ,flagNationality                ,   ,                   ,1,1297,1298,              ,
93,BODY-DATACUENTA             ,CN        ,CPAIS-RESID                 ,X ,codeCountryOfResidence         ,   ,                   ,4,1298,1302,              ,
94,BODY-DATACUENTA             ,CN        ,CREL-LAB-BCO                ,X ,codeRelationshipWorkingBco     ,   ,                   ,1,1302,1303,              ,
95,BODY-DATACUENTA             ,CN        ,CACCIONIST-BCO              ,X ,codeShareholderBco             ,   ,                   ,1,1303,1304,              ,
96,BODY-DATACUENTA             ,N         ,CSECTOR-ECON                ,X ,codeEconomicSector             ,   ,                   ,6,1304,1310,              ,
97,BODY-DATACUENTA             ,N         ,CACT-ECON-CIUU              ,X ,codeEconomicActivity           ,   ,                   ,6,1310,1316,              ,
98,BODY-DATACUENTA             ,N         ,CCLASIF-DEU-BN              ,X ,codeDebtorClass                ,   ,                   ,1,1316,1317,              ,
99,BODY-DATACUENTA             ,N         ,CRIESG-CAMB                 ,X ,codeRisk                       ,   ,                   ,1,1317,1318,              ,
100,BODY-DATACUENTA             ,N         ,CMAGNITUD-CLTE              ,X ,customerMagnitudeCode          ,   ,                   ,1,1318,1319,              ,
101,BODY-DATACUENTA             ,CN        ,CCLTE-SBS                   ,X ,descriptionDebtorClassSBS      ,   ,                   ,10,1319,1329,              ,
102,BODY-DATACUENTA             ,N         ,SING-ANUALES                ,X ,annualProfit                   ,   ,                   ,15,1329,1344,              ,
103,BODY-DATACUENTA             ,N         ,NRUC-PERS-NEG               ,X ,numberRUC                      ,   ,                   ,12,1344,1356,              ,
104,BODY-DATACUENTA             ,CN        ,ARAZON-SOCIAL               ,X ,companyName                    ,   ,                   ,150,1356,1506,              ,
105,BODY-DATACUENTA             ,CN        ,SIGLAS                      ,X ,companyAcronym                 ,   ,                   ,60,1506,1566,              ,
106,BODY-DATACUENTA             ,CN        ,REG-PUB-OFIC                ,X ,codeOfficeRegistry             ,   ,                   ,2,1566,1568,              ,
107,BODY-DATACUENTA             ,CN        ,REG-PUB-SUBOFI              ,X ,subCodeOfficeRegistry          ,   ,                   ,2,1568,1570,              ,
108,BODY-DATACUENTA             ,CN        ,FCONSTITUCION               ,X ,companyCreationDate            ,   ,                   ,8,1570,1578,              ,
109,BODY-DATACUENTA             ,CN        ,REG-PUB-ID                  ,X ,registryPublicID               ,   ,                   ,1,1578,1579,              ,
110,BODY-DATACUENTA             ,CN        ,REG-PUB-NPART               ,X ,registryPublicNumberCertificate,   ,                   ,10,1579,1589,              ,
111,BODY-DATACUENTA             ,CN        ,REG-PUB-FOLIO               ,X ,registryPublicNumberFolio      ,   ,                   ,3,1589,1592,              ,
112,BODY-DATACUENTA             ,N         ,REG-PUB-TOMO                ,X ,registryPublicNumberVolume     ,   ,                   ,7,1592,1599,              ,
113,BODY-DATACUENTA             ,CN        ,REG-PUB-REPORT              ,X ,registryPublicReported         ,   ,                   ,20,1599,1619,              ,
114,BODY-DATACUENTA             ,CN        ,DOCUMENTO-REF               ,X ,referenceDocument              ,   ,                   ,30,1619,1649,              ,
115,BODY-DATACUENTA             ,CN        ,TDCMTO-AH                   ,X ,tdCmToAh                       ,   ,                   ,1,1649,1650,              ,
116,BODY-DATACUENTA             ,N         ,NDCMTO-AH                   ,X ,codeDegreeEducationAccount     ,   ,                   ,12,1650,1662,              ,
117,BODY-DATACUENTA             ,N         ,TMODIFICA                   ,X ,codeProfessionAccount          ,   ,                   ,1,1662,1663,              ,
118,BODY-DATACUENTA             ,CN        ,CATRASO-DEU                 ,X ,codeDelayAccount               ,   ,                   ,1,1663,1664,              ,
119,BODY-DATACUENTA             ,CN        ,CCLASIF-DEU-SALIN           ,X ,codeDebtorClassification       ,   ,                   ,1,1664,1665,              ,
120,BODY-DATACUENTA             ,CN        ,CCLASIF-DEU-ALIN            ,X ,codeDebtorClassificationAlign  ,   ,                   ,1,1665,1666,              ,
121,BODY-DATACUENTA             ,CN        ,TDOC-COMP                   ,X ,typeDocumentComplementary      ,   ,                   ,1,1666,1667,              ,
122,BODY-DATACUENTA             ,CN        ,NDOC-COMP                   ,X ,numberDocumentComplementary    ,   ,                   ,12,1667,1679,              ,
123,BODY-DATACUENTA             ,CN        ,GPERS-NEGOCIO               ,X ,flagPersonWithBusiness         ,   ,                   ,1,1679,1680,              ,
124,BODY-DATACUENTA             ,CN        ,CPAIS-NAC                   ,X ,codeCountryOfBirth             ,   ,                   ,4,1680,1684,              ,
125,BODY-DATACUENTA             ,CN        ,GFALLECIDO                  ,X ,flagDeceased                   ,   ,                   ,1,1684,1685,              ,
126,BODY-DATACUENTA             ,CN        ,CCLASIF-DEU-SB              ,X ,codeDebtorClassSBS             ,   ,                   ,1,1685,1686,              ,
127,BODY-DATACUENTA             ,CN        ,TBANCA                      ,X ,typeOfBank                     ,   ,                   ,2,1686,1688,              ,
128,BODY-DATACUENTA             ,CN        ,CSEGMENTO-CLTE              ,X ,segmentClientCode              ,   ,                   ,2,1688,1690,              ,
129,BODY-DATACUENTA             ,CN        ,CSECTOR-PUB                 ,X ,codePublicSector               ,   ,                   ,3,1690,1693,              ,
130,BODY-DATACUENTA             ,CN        ,NDEPENDIENTES               ,X ,numberDependents               ,   ,                   ,2,1693,1695,              ,
131,BODY-DATACUENTA             ,CN        ,CPROFESION                  ,X ,codeEmployment                 ,   ,                   ,5,1695,1700,              ,
132,BODY-DATACUENTA             ,CN        ,GVISITA-DOMIC               ,X ,flagVisitHome                  ,   ,                   ,1,1700,1701,              ,
133,BODY-DATACUENTA             ,N         ,NTELEFONO-FIJO              ,X ,accountHomePhone               ,   ,                   ,12,1701,1713,              ,
134,BODY-DATACUENTA             ,N         ,NTELEFONO-FIJO-LAB          ,X ,accountWorkingPhone            ,   ,                   ,12,1713,1725,              ,
135,BODY-DATACUENTA             ,CN        ,NANEXO                      ,X ,accountWorkingPhoneAnnex       ,   ,                   ,6,1725,1731,              ,
136,BODY-DATACUENTA             ,N         ,NTELEFONO-CELULAR           ,X ,cellphone                      ,   ,                   ,12,1731,1743,              ,
137,BODY-DATACUENTA             ,CN        ,EMAIL-PERSONAL              ,X ,personalEmail                  ,   ,                   ,96,1743,1839,              ,
138,BODY-DATACUENTA             ,CN        ,EMAIL-ADICIONAL             ,X ,optionalEmail                  ,   ,                   ,96,1839,1935,              ,
139,BODY-DATACUENTA             ,CN        ,DPAGINA-WEB                 ,X ,webPage                        ,   ,                   ,96,1935,2031,              ,
140,BODY-DATACUENTA             ,CN        ,TAPERTURA-CLTE              ,X ,regPubReportado02              ,   ,                   ,1,2031,2032,              ,
141,BODY-DATACUENTA             ,CN        ,GPERS-EXP-PUB               ,X ,gPersonExpPub                  ,   ,                   ,1,2032,2033,              ,
142,BODY-DATACUENTA             ,CN        ,DREPORTADA                  ,X ,reported                       ,   ,                   ,150,2033,2183,              ,
143,BODY-DATACUENTA             ,CN,TUBIGEO_NAC                 ,X ,tUbigeeBirth                   ,   ,                   ,1,2183,2184,              ,
144,BODY-DATACUENTA             ,CN        ,CUBIGEO_NAC                 ,X ,cUbigeeBirth                   ,   ,                   ,8,2184,2192,              ,
145,BODY-DATACUENTA             ,CN,TRELAC_CLTE                 ,X ,accountRelated                 ,   ,                   ,2,2192,2194,              ,
146,BODY-DATACUENTA             ,CN,CINTERNO_CLTE               ,X ,accountCustomerCic             ,   ,                   ,12,2194,2206,              ,
147,BODY-DATACUENTA             ,CN,BRELACION                   ,X ,relation                       ,   ,                   ,1,2206,2207,              ,
148,BODY-DATACUENTA             ,CN        ,FINICIO_RELAC               ,X ,startRelationship              ,   ,                   ,8,2207,2215,              ,
149,BODY-DATACUENTA             ,CN        ,FTERMINO_RELAC              ,X ,endRelationship                ,   ,                   ,8,2215,2223,              ,
150,BODY-DATACUENTA             ,CN        ,PORC_PARTC                  ,X ,porcPartC                      ,   ,                   ,3,2223,2226,              ,
151,BODY-DATACUENTA             ,CN        ,GDOCUMENTADO                ,X ,documented                     ,   ,                   ,1,2226,2227,              ,
152,BODY-DATACUENTA             ,CN        ,OBS_RELAC                   ,X ,relatedObservations            ,   ,                   ,30,2227,2257,              ,
153,BODY-DATACUENTA             ,CN        ,BINDICADOR                  ,X ,indicatorBIN                   ,   ,                   ,1,2257,2258,              ,
154,BODY-DATACUENTA             ,CN        ,TUBIGEO_AHORRO              ,X ,tUbigeeSavingsAccount          ,   ,                   ,1,2258,2259,              ,
155,BODY-DATACUENTA             ,CN        ,CUBIGEO_AHORRO              ,X ,cUbigeeSavingsAccount          ,   ,                   ,8,2259,2267,              ,
156,BODY-DATACUENTA             ,CN        ,TUBIGEO_CTACTE              ,X ,tUbigeeCustomerAccount         ,   ,                   ,1,2267,2268,              ,
157,BODY-DATACUENTA             ,CN        ,CUBIGEO_CTACTE              ,X ,cUbigeeCustomerAccount         ,   ,                   ,8,2268,2276,              ,
158,BODY-DATACUENTA             ,CN        ,FILL1                       ,  ,accountFill                    ,   ,                   ,729,2276,3005,              ,
159,NESTED-CustomerAddress      ,          ,NESTED-CustomerAddress      ,  ,customerAddress                ,   ,                   ,        ,    ,    ,              ,N
160,NESTED-CustomerAccount      ,          ,NESTED-CustomerAccount      ,  ,customerAccount                ,   ,                   ,        ,    ,    ,              ,N
161,NESTED-CustomerAccountDetail,          ,NESTED-CustomerAccountDetail,  ,customerAccountDetail          ,   ,                   ,        ,    ,    ,              ,N
