POSICION,TYPE            ,TYPE_FIELD,NAME_HOST              ,IN,INPUT              ,OUT,OUTPUT                   ,LONGITUD,X1  ,X2   ,CHECK_RESPONSE,CHECKPOINT
1       ,HEADER          ,C         ,HD-LONG                ,x ,hdLong             ,   ,                         ,4       ,1   ,5    ,              ,
2       ,HEADER          ,C         ,HD-TRAN                ,x ,hdTran             ,   ,                         ,4       ,5   ,9    ,              ,
3       ,HEADER          ,C         ,HD-TIMESTAMP           ,  ,hdTimestamp        ,   ,                         ,26      ,9   ,35   ,              ,
4       ,HEADER          ,N         ,HD-COD-TRAN            ,x ,hdCodTran          ,   ,                         ,4       ,35  ,39   ,              ,
5       ,HEADER          ,C         ,HD-COD-USER            ,x ,hdCodUser          ,   ,                         ,6       ,39  ,45   ,              ,
6       ,HEADER          ,n         ,HD-DES-RET             ,  ,hdCodeHostResult   ,x  ,hdCodeHostResult         ,5       ,45  ,50   ,R             ,
7       ,HEADER          ,n         ,HD-COD-RET             ,  ,hdMessageHostResult,x  ,hdMessageHostResult      ,25      ,50  ,75   ,R             ,
8       ,HEADER          ,C         ,HD-COD-CANAL           ,  ,hdCodCanal         ,   ,                         ,4       ,75  ,79   ,              ,
9       ,HEADER          ,C         ,HD-COD-TERM            ,  ,hdCodTerm          ,   ,                         ,6       ,79  ,85   ,              ,
10      ,HEADER          ,C         ,HD-COD-RET-LOG         ,  ,hdCodRetLog        ,   ,                         ,5       ,85  ,90   ,              ,
11      ,HEADER          ,C         ,HD-DES-RET-LOG         ,  ,hdDesRetLog        ,   ,                         ,22      ,90  ,112  ,              ,
12      ,BODY-DATA-INPUT ,C         ,IN_TDCMTO_ID           ,x ,typeDocument       ,   ,                         ,1       ,112 ,113  ,              ,
13      ,BODY-DATA-INPUT ,N         ,IN-NDCMTO-ID           ,x ,numDocument        ,   ,                         ,12      ,113 ,125  ,              ,
14      ,BODY-DATA-INPUT ,N         ,IN_TIPO-BUS            ,x ,tipoBus            ,   ,                         ,2       ,125 ,127  ,              ,
15      ,BODY-DATA-INPUT ,N         ,IN_TIPO-RESULT         ,x ,tipoResult         ,   ,                         ,2       ,127 ,129  ,              ,
16      ,BODY-DATA-INPUT ,N         ,IN-ULTCTA              ,  ,ultcta             ,   ,                         ,4       ,129 ,133  ,              ,
17      ,BODY-DATA-INPUT ,N         ,IN-CIC                 ,x ,cicInSecond        ,   ,                         ,12      ,133 ,145  ,              ,
18      ,BODY-DATA-INPUT ,N         ,IN-COD-PROD            ,  ,codProd            ,   ,                         ,2       ,145 ,147  ,              ,
19      ,BODY-DATA-INPUT ,N         ,IN-NUM-PROD            ,x ,numProd            ,   ,                         ,18      ,147 ,165  ,              ,
20      ,BODY-DATA-INPUT ,N         ,IN-NUM-COR-DIR         ,x ,numCorDir          ,   ,                         ,5       ,165 ,170  ,              ,
21      ,BODY-DATA-INPUT ,N         ,IN-NTARJETA-INPUT      ,  ,numTarjeta         ,   ,                         ,16      ,170 ,186  ,              ,
22      ,BODY-DATA-INPUT ,N         ,IN-TDOCUM-AD           ,  ,tipoDocumento      ,   ,                         ,2       ,186 ,188  ,              ,
23      ,BODY-DATA-INPUT ,C         ,IN-FILLER              ,  ,filler             ,   ,                         ,24      ,188 ,212  ,              ,
24      ,BODY-DATA-OUTPUT,N         ,CLTE_CINTERNO_CIC      ,  ,                   ,x  ,cinternoCicOut           ,12      ,212 ,224  ,              ,
25      ,BODY-DATA-OUTPUT,N         ,CLTE_COFIC_INGRESO     ,  ,                   ,x  ,officeInputCode          ,4       ,224 ,228  ,              ,
26      ,BODY-DATA-OUTPUT,N         ,CLTE_COFIC_OPERAC      ,  ,                   ,x  ,officeOperationalCode    ,4       ,228 ,232  ,              ,
27      ,BODY-DATA-OUTPUT,N         ,CLTE_FINGRESO_BCO      ,  ,                   ,x  ,admissionBankDate        ,8       ,232 ,240  ,              ,
28      ,BODY-DATA-OUTPUT,N         ,CLTE_CEJECT_NEG        ,  ,                   ,x  ,businessExecutiveCode    ,6       ,240 ,246  ,              ,
29      ,BODY-DATA-OUTPUT,N         ,CLTE_CEJECT_NEG-DES    ,  ,                   ,x  ,businessExecutiveDesc    ,25      ,246 ,271  ,              ,
30      ,BODY-DATA-OUTPUT,N         ,CLTE_CSECTOR_ECON      ,  ,                   ,x  ,economicSectorCode       ,6       ,271 ,277  ,              ,
31      ,BODY-DATA-OUTPUT,N         ,CLTE_CSECTOR_ECON-DES  ,  ,                   ,x  ,economicSectorDesc       ,25      ,277 ,302  ,              ,
32      ,BODY-DATA-OUTPUT,N         ,CLTE_CACT_ECON_CIUU    ,  ,                   ,x  ,economicActivityCode     ,6       ,302 ,308  ,              ,
33      ,BODY-DATA-OUTPUT,N         ,CLTE_CACT_ECON_CIUU-DES,  ,                   ,x  ,economicActivityDesc     ,25      ,308 ,333  ,              ,
34      ,BODY-DATA-OUTPUT,N         ,CLTE_TCLTE             ,  ,                   ,x  ,clientType               ,2       ,333 ,335  ,              ,
35      ,BODY-DATA-OUTPUT,N         ,CLTE_TCLTE-DES         ,  ,                   ,x  ,clientTypeDesc           ,15      ,335 ,350  ,              ,
36      ,BODY-DATA-OUTPUT,N         ,CLTE_TBANCA            ,  ,                   ,x  ,bankingType              ,2       ,350 ,352  ,              ,
37      ,BODY-DATA-OUTPUT,N         ,CLTE_TBANCA-DES        ,  ,                   ,x  ,clientTypeDescSecond     ,15      ,352 ,367  ,              ,
38      ,BODY-DATA-OUTPUT,N         ,CLTE_CSEGMENTO_CLTE    ,  ,                   ,x  ,segmentClientCode        ,2       ,367 ,369  ,              ,
39      ,BODY-DATA-OUTPUT,N         ,CLTE_CSEGMENTO_CLTE-DES,  ,                   ,x  ,segmentClientDesc        ,25      ,369 ,394  ,              ,
40      ,BODY-DATA-OUTPUT,N         ,CLTE_TDCMTO_ID         ,  ,                   ,x  ,documentType             ,1       ,394 ,395  ,              ,
41      ,BODY-DATA-OUTPUT,N         ,CLTE_TDCMTO_ID-DES     ,  ,                   ,x  ,documentTypeDesc         ,15      ,395 ,410  ,              ,
42      ,BODY-DATA-OUTPUT,N         ,CLTE_NDCMTO_ID         ,  ,                   ,x  ,documentNumber           ,12      ,410 ,422  ,              ,
43      ,BODY-DATA-OUTPUT,N         ,CLTE_ANOMB_RAZ_CLTE    ,  ,                   ,x  ,fullName                 ,150     ,422 ,572  ,              ,
44      ,BODY-DATA-OUTPUT,N         ,CLTE_CTIPO_PERSONA     ,  ,                   ,x  ,personType               ,1       ,572 ,573  ,              ,
45      ,BODY-DATA-OUTPUT,N         ,CLTE_CTIPO_PERSONA-DES ,  ,                   ,x  ,personTypeDesc           ,15      ,573 ,588  ,              ,
46      ,BODY-DATA-OUTPUT,N         ,CLTE_NTELEFONO         ,  ,                   ,x  ,workingPhone             ,12      ,588 ,600  ,              ,
47      ,BODY-DATA-OUTPUT,N         ,CLTE_NANEXO_TELEF      ,  ,                   ,x  ,annexPhone               ,6       ,600 ,606  ,              ,
48      ,BODY-DATA-OUTPUT,N         ,CLTE_NFAX              ,  ,                   ,x  ,homePhone                ,12      ,606 ,618  ,              ,
49      ,BODY-DATA-OUTPUT,N         ,CLTE_CAGENTE_BCR       ,  ,                   ,x  ,BCRAgentCode             ,8       ,618 ,626  ,              ,
50      ,BODY-DATA-OUTPUT,N         ,CLTE_CCLTE_SBS         ,  ,                   ,x  ,SBSClientCode            ,10      ,626 ,636  ,              ,
51      ,BODY-DATA-OUTPUT,N         ,CLTE_CMANCOMUNO_SBS    ,  ,                   ,x  ,SBSJointCode             ,10      ,636 ,646  ,              ,
52      ,BODY-DATA-OUTPUT,N         ,CLTE_CCLASIF_DEU_BN    ,  ,                   ,x  ,debtorClasBNCode         ,1       ,646 ,647  ,              ,
53      ,BODY-DATA-OUTPUT,N         ,CLTE_FILLER01          ,  ,                   ,   ,                         ,4       ,647 ,651  ,              ,
54      ,BODY-DATA-OUTPUT,N         ,CLTE_CCLASIF_DEU_SB    ,  ,                   ,x  ,debtorClasSBSCode        ,1       ,651 ,652  ,              ,
55      ,BODY-DATA-OUTPUT,N         ,CLTE_CCLASIF_DEU_SB-DES,  ,                   ,x  ,debtorClasSBSDesc        ,15      ,652 ,667  ,              ,
56      ,BODY-DATA-OUTPUT,N         ,CLTE_CMAGNITUD_CLTE    ,  ,                   ,x  ,clientMagnitudeCode      ,1       ,667 ,668  ,              ,
57      ,BODY-DATA-OUTPUT,N         ,CLTE_CMAGNITUD_CLTE-DES,  ,                   ,x  ,clientMagnitudeDesc      ,25      ,668 ,693  ,              ,
58      ,BODY-DATA-OUTPUT,N         ,CLTE_GDATO_COMPLEM     ,  ,                   ,x  ,flagSupplementaryData    ,1       ,693 ,694  ,              ,
59      ,BODY-DATA-OUTPUT,N         ,CLTE_CREL_LAB_BCO      ,  ,                   ,x  ,relLabBcoCode            ,1       ,694 ,695  ,              ,
60      ,BODY-DATA-OUTPUT,N         ,CLTE_CACCIONIST_BCO    ,  ,                   ,x  ,accionistBcoCode         ,1       ,695 ,696  ,              ,
61      ,BODY-DATA-OUTPUT,N         ,CLTE_CATRASO_DEU       ,  ,                   ,x  ,atrasoDeuCode            ,1       ,696 ,697  ,              ,
62      ,BODY-DATA-OUTPUT,N         ,CLTE_CATRASO_DEU-DES   ,  ,                   ,x  ,atrasoDeuDesc            ,25      ,697 ,722  ,              ,
63      ,BODY-DATA-OUTPUT,N         ,CLTE_CRIESG_CAMB       ,  ,                   ,x  ,riesgCambCode            ,1       ,722 ,723  ,              ,
64      ,BODY-DATA-OUTPUT,N         ,CLTE_CRIESG_CAMB-DES   ,  ,                   ,x  ,riesgCambDesc            ,25      ,723 ,748  ,              ,
65      ,BODY-DATA-OUTPUT,N         ,CLTE_GCHEQ_SFOND_BCO   ,  ,                   ,x  ,flagCheqSinFondoBco      ,1       ,748 ,749  ,              ,
66      ,BODY-DATA-OUTPUT,N         ,CLTE_GCHEQ_SFOND_SBS   ,  ,                   ,x  ,flagCheqSinFondoSBS      ,1       ,749 ,750  ,              ,
67      ,BODY-DATA-OUTPUT,N         ,CLTE_GLAVADO_ACTIVO    ,  ,                   ,x  ,flagLavadoDinero         ,1       ,750 ,751  ,              ,
68      ,BODY-DATA-OUTPUT,N         ,CLTE_GCLAVE_INTERNE    ,  ,                   ,x  ,flagInternetKey          ,1       ,751 ,752  ,              ,
69      ,BODY-DATA-OUTPUT,N         ,CLTE_GTARJETA_MULTI    ,  ,                   ,x  ,flagMultiredCard         ,1       ,752 ,753  ,              ,
70      ,BODY-DATA-OUTPUT,N         ,CLTE_GPREST_MULTIR     ,  ,                   ,x  ,flagoMultiredLoan        ,1       ,753 ,754  ,              ,
71      ,BODY-DATA-OUTPUT,N         ,CLTE_GGARANTE_MULTI    ,  ,                   ,x  ,flagMultiredGuarantor    ,1       ,754 ,755  ,              ,
72      ,BODY-DATA-OUTPUT,N         ,CLTE_GVISITA_DOMIC     ,  ,                   ,x  ,flagHomeVisite           ,1       ,755 ,756  ,              ,
73      ,BODY-DATA-OUTPUT,N         ,CLTE_GNACIONALIDAD     ,  ,                   ,x  ,flagNationality          ,1       ,756 ,757  ,              ,
74      ,BODY-DATA-OUTPUT,N         ,CLTE_GMENOR_EDAD       ,  ,                   ,x  ,flagUnderAge             ,1       ,757 ,758  ,              ,
75      ,BODY-DATA-OUTPUT,N         ,CLTE_GACEPTANTE        ,  ,                   ,x  ,flagAcceptor             ,1       ,758 ,759  ,              ,
76      ,BODY-DATA-OUTPUT,N         ,CLTE_GCOMERCIO_EXT     ,  ,                   ,x  ,flagExternalTrade        ,1       ,759 ,760  ,              ,
77      ,BODY-DATA-OUTPUT,N         ,CLTE_CRESIDENC_PAIS    ,  ,                   ,x  ,flagCountryResidence     ,1       ,760 ,761  ,              ,
78      ,BODY-DATA-OUTPUT,N         ,CLTE_CRESIDENC_PAIS-DES,  ,                   ,x  ,DescCountryResidence     ,25      ,761 ,786  ,              ,
79      ,BODY-DATA-OUTPUT,N         ,CLTE_CPAIS_RESID       ,  ,                   ,x  ,codeCountryOfResidence   ,4       ,786 ,790  ,              ,
80      ,BODY-DATA-OUTPUT,N         ,CLTE_CPAIS_RESID-DES   ,  ,                   ,x  ,descCountryOfResidence   ,15      ,790 ,805  ,              ,
81      ,BODY-DATA-OUTPUT,N         ,CLTE_CSECTOR_PUB       ,  ,                   ,x  ,codePublicSector         ,3       ,805 ,808  ,              ,
82      ,BODY-DATA-OUTPUT,N         ,CLTE_CSECTOR_PUB-DES   ,  ,                   ,x  ,descPublicSector         ,25      ,808 ,833  ,              ,
83      ,BODY-DATA-OUTPUT,N         ,CLTE_GFALLECIDO        ,  ,                   ,x  ,flagDead                 ,1       ,833 ,834  ,              ,
84      ,BODY-DATA-OUTPUT,N         ,CLTE_CENTIDAD_INTER    ,  ,                   ,x  ,codeEntityClient         ,4       ,834 ,838  ,              ,
85      ,BODY-DATA-OUTPUT,N         ,CLTE_CENTIDAD_INTER-DES,  ,                   ,x  ,descEntityClient         ,25      ,838 ,863  ,              ,
86      ,BODY-DATA-OUTPUT,N         ,CLTE_CCLIENTE_INTER    ,  ,                   ,x  ,internalClientCode       ,6       ,863 ,869  ,              ,
87      ,BODY-DATA-OUTPUT,N         ,CLTE_CGRUPO_INTERF     ,  ,                   ,x  ,internalGroupCode        ,3       ,869 ,872  ,              ,
88      ,BODY-DATA-OUTPUT,N         ,CLTE_TDCMTO_REPORT     ,  ,                   ,x  ,documentTypeReport       ,2       ,872 ,874  ,              ,
89      ,BODY-DATA-OUTPUT,N         ,CLTE_NDCMTO_REPORT     ,  ,                   ,x  ,documentNumberReport     ,12      ,874 ,886  ,              ,
90      ,BODY-DATA-OUTPUT,N         ,CLTE_ANOMBRES_REPOR    ,  ,                   ,x  ,fullNameReport           ,150     ,886 ,1036 ,              ,
91      ,BODY-DATA-OUTPUT,N         ,CLTE_GINTERDICTO       ,  ,                   ,x  ,flagInterdicto           ,1       ,1036,1037 ,              ,
92      ,BODY-DATA-OUTPUT,N         ,CLTE_FULT_LAVADO       ,  ,                   ,x  ,lastLavadoActivoDate     ,8       ,1037,1045 ,              ,
93      ,BODY-DATA-OUTPUT,N         ,CLTE_CCLIENTE_ANT      ,  ,                   ,x  ,lastClientCode           ,11      ,1045,1056 ,              ,
94      ,BODY-DATA-OUTPUT,N         ,CLTE_CGRUPO_ANT        ,  ,                   ,x  ,lastGroupCode            ,3       ,1056,1059 ,              ,
95      ,BODY-DATA-OUTPUT,N         ,CLTE_FULTIMA_ACT       ,  ,                   ,x  ,lastChangeDate           ,8       ,1059,1067 ,              ,
96      ,BODY-DATA-OUTPUT,N         ,CLTE_SING_ANUALES      ,  ,                   ,x  ,annualProfit             ,17      ,1067,1084 ,              ,
97      ,BODY-DATA-OUTPUT,N         ,CLTE_CCLASIF_DEU_SALIN ,  ,                   ,x  ,clasifDebtorCode         ,1       ,1084,1085 ,              ,
98      ,BODY-DATA-OUTPUT,N         ,CLTE_CCLASIF_DEU_ALIN  ,  ,                   ,x  ,clasifDebtorAlignedCode  ,1       ,1085,1086 ,              ,
99      ,BODY-DATA-OUTPUT,N         ,CLTE_TDOC_COMP         ,  ,                   ,x  ,docComplementaryType     ,1       ,1086,1087 ,              ,
100     ,BODY-DATA-OUTPUT,N         ,CLTE_NDOC_COMP         ,  ,                   ,x  ,docComplementaryNum      ,12      ,1087,1099 ,              ,
101     ,BODY-DATA-OUTPUT,N         ,CLTE-TAPERTURA-CLTE    ,  ,                   ,x  ,openingClientType        ,1       ,1099,1100 ,              ,
102     ,BODY-DATA-OUTPUT,N         ,CLTE-GPERS-EXP-PUB     ,  ,                   ,   ,flagPEP                  ,1       ,1100,1101 ,              ,
103     ,BODY-DATA-OUTPUT,N         ,CLTE-GCONTRACTUAL      ,  ,                   ,   ,flagContractual          ,1       ,1101,1102 ,              ,
104     ,BODY-DATA-OUTPUT,N         ,CLTE-GMENSAJE-TXT      ,  ,                   ,   ,flagTextMessage          ,1       ,1102,1103 ,              ,
105     ,BODY-DATA-OUTPUT,N         ,CLTE-GOBLIG-INFORMAR   ,  ,                   ,   ,flagForcedToInform       ,1       ,1103,1104 ,              ,
106     ,BODY-DATA-OUTPUT,N         ,FILLER02               ,  ,                   ,   ,                         ,1       ,1104,1105 ,              ,
107     ,BODY-DATA-OUTPUT,N         ,CLTE-UBI-CLTE          ,  ,                   ,x  ,                         ,6       ,1105,1111 ,              ,
108     ,BODY-DATA-OUTPUT,N         ,CLTE-DIR-CLTE          ,  ,                   ,x  ,                         ,70      ,1111,1181 ,              ,
109     ,BODY-DATA-OUTPUT,N         ,CLTEN_CIC              ,  ,                   ,   ,                         ,12      ,1181,1193 ,              ,
110     ,BODY-DATA-OUTPUT,N         ,CLTEN_APE_PATERNO      ,  ,                   ,   ,lastName01               ,50      ,1193,1243 ,              ,
111     ,BODY-DATA-OUTPUT,N         ,CLTEN_APE_MATERNO      ,  ,                   ,x  ,lastName02               ,50      ,1243,1293 ,              ,
112     ,BODY-DATA-OUTPUT,N         ,CLTEN_APE_DE_CASADA    ,  ,                   ,x  ,marriedName              ,50      ,1293,1343 ,              ,
113     ,BODY-DATA-OUTPUT,N         ,CLTEN_APRIMERO         ,  ,                   ,x  ,firstName                ,50      ,1343,1393 ,              ,
114     ,BODY-DATA-OUTPUT,N         ,CLTEN_ASEGUNDO         ,  ,                   ,x  ,secondName               ,50      ,1393,1443 ,              ,
115     ,BODY-DATA-OUTPUT,N         ,CLTEN_CPAIS_NAC        ,  ,                   ,x  ,"countryOfBirthCode"     ,4       ,1443,1447 ,              ,
116     ,BODY-DATA-OUTPUT,N         ,CLTEN_CPAIS_NAC-DES    ,  ,                   ,x  ,countryOfBirthDesc       ,15      ,1447,1462 ,              ,
117     ,BODY-DATA-OUTPUT,N         ,CLTEN_FNACIMIENTO      ,  ,                   ,x  ,birthDate                ,8       ,1462,1470 ,              ,
118     ,BODY-DATA-OUTPUT,N         ,CLTEN_TUBIGEO_NAC      ,  ,                   ,x  ,ubigeoBirthType          ,1       ,1470,1471 ,              ,
119     ,BODY-DATA-OUTPUT,N         ,CLTEN_CUBIGEO_NAC      ,  ,                   ,x  ,ubigeoBirthCode          ,6       ,1471,1477 ,              ,
120     ,BODY-DATA-OUTPUT,N         ,CLTEN_CSEXO            ,  ,                   ,x  ,sexCode                  ,1       ,1477,1478 ,              ,
121     ,BODY-DATA-OUTPUT,N         ,CLTEN_CESTADO_CIVIL    ,  ,                   ,x  ,civilStatusCode          ,1       ,1478,1479 ,              ,
122     ,BODY-DATA-OUTPUT,N         ,CLTEN_CESTADO_CIVIL-DES,  ,                   ,x  ,civilStatusDesc          ,15      ,1479,1494 ,              ,
123     ,BODY-DATA-OUTPUT,N         ,CLTEN_NTELEFONO_PERS   ,  ,                   ,x  ,numberMobile             ,12      ,1494,1506 ,              ,
124     ,BODY-DATA-OUTPUT,N         ,CLTEN_EMAIL_PERSONAL   ,  ,                   ,x  ,personalEmail            ,96      ,1506,1602 ,              ,
125     ,BODY-DATA-OUTPUT,N         ,CLTEN_EMAIL_TRABAJO    ,  ,                   ,x  ,workEmail                ,96      ,1602,1698 ,              ,
126     ,BODY-DATA-OUTPUT,N         ,CLTEN_CGRADO_INSTRUC   ,  ,                   ,x  ,"degreeOfInstructionCode",1       ,1698,1699 ,              ,
127     ,BODY-DATA-OUTPUT,N         ,CLTEN_CPROFESION       ,  ,                   ,x  ,professionCode           ,5       ,1699,1704 ,              ,
128     ,BODY-DATA-OUTPUT,N         ,CLTEN_CPROFESION-DES   ,  ,                   ,x  ,professionDesc           ,15      ,1704,1719 ,              ,
129     ,BODY-DATA-OUTPUT,N         ,CLTEN_COCUPACION       ,  ,                   ,x  ,occupationCode           ,5       ,1719,1724 ,              ,
130     ,BODY-DATA-OUTPUT,N         ,CLTEN_COCUPACION-DES   ,  ,                   ,x  ,occupationDesc           ,15      ,1724,1739 ,              ,
131     ,BODY-DATA-OUTPUT,N         ,CLTEN_COCUP_REPORT     ,  ,                   ,x  ,occupationCodeReported   ,18      ,1739,1757 ,              ,
132     ,BODY-DATA-OUTPUT,N         ,CLTEN_GPERS_NEGOCIO    ,  ,                   ,x  ,flagBusinessPerson       ,1       ,1757,1758 ,              ,
133     ,BODY-DATA-OUTPUT,N         ,CLTEN_NRUC_PERS_NEG    ,  ,                   ,x  ,numberRUC                ,12      ,1758,1770 ,              ,
134     ,BODY-DATA-OUTPUT,N         ,CLTEN_NDEPENDIENTES    ,  ,                   ,x  ,dependentNum             ,2       ,1770,1772 ,              ,
135     ,BODY-DATA-OUTPUT,N         ,CLTEN_ALOCAL_NAC       ,  ,                   ,x  ,localityBirth            ,30      ,1772,1802 ,              ,
136     ,BODY-DATA-OUTPUT,N         ,CLTEN_NANOS_EST        ,  ,                   ,x  ,yearOfStudy              ,1       ,1802,1803 ,              ,
137     ,BODY-DATA-OUTPUT,N         ,CLTEN_NESTATURA        ,  ,                   ,x  ,heightClient             ,3       ,1803,1806 ,              ,
138     ,BODY-DATA-OUTPUT,N         ,CLTEN_ANOMBRE_PADRE    ,  ,                   ,x  ,fatherName               ,15      ,1806,1821 ,              ,
139     ,BODY-DATA-OUTPUT,N         ,CLTEN_ANOMBRE_MADRE    ,  ,                   ,   ,motherName               ,15      ,1821,1836 ,              ,
140     ,BODY-DATA-OUTPUT,N         ,CLTEJ_CINTERNO_CIC     ,  ,                   ,x  ,                         ,12      ,1836,1848 ,              ,
141     ,BODY-DATA-OUTPUT,N         ,CLTEJ_ASIGLAS          ,  ,                   ,x  ,acronymCompany           ,60      ,1848,1908 ,              ,
142     ,BODY-DATA-OUTPUT,N         ,CLTEJ_ARAZON_SOCIAL    ,  ,                   ,x  ,nameCompany              ,150     ,1908,2058 ,              ,
143     ,BODY-DATA-OUTPUT,N         ,CLTEJ_FCONSTITUCION    ,  ,                   ,x  ,CompanyCreationDate      ,8       ,2058,2066 ,              ,
144     ,BODY-DATA-OUTPUT,N         ,CLTEJ_REG_PUB_OFIC     ,  ,                   ,x  ,codOficinaRegistral      ,2       ,2066,2068 ,              ,
145     ,BODY-DATA-OUTPUT,N         ,CLTEJ_REG_PUB_SUBOFI   ,  ,                   ,x  ,codSubOficinaRegistral   ,2       ,2068,2070 ,              ,
146     ,BODY-DATA-OUTPUT,N         ,CLTEJ_REG_PUB_ID       ,  ,                   ,x  ,regPubId                 ,1       ,2070,2071 ,              ,
147     ,BODY-DATA-OUTPUT,N         ,CLTEJ_REG_PUB_NPART    ,  ,                   ,x  ,regPubNumPartidaFicha    ,10      ,2071,2081 ,              ,
148     ,BODY-DATA-OUTPUT,N         ,CLTEJ_REG_PUB_FOLIO    ,  ,                   ,x  ,regPubNumFolio           ,3       ,2081,2084 ,              ,
149     ,BODY-DATA-OUTPUT,N         ,CLTEJ_REG_PUB_TOMO     ,  ,                   ,x  ,regPubNumTomo            ,7       ,2084,2091 ,              ,
150     ,BODY-DATA-OUTPUT,N         ,CLTEJ_REG_PUB_REPORT   ,  ,                   ,x  ,regPubReportado          ,20      ,2091,2111 ,              ,
151     ,BODY-DATA-OUTPUT,          ,CLTEJ_DPAGINA_WEB      ,  ,                   ,   ,webPage                  ,96      ,2111,2207 ,              ,
152     ,BODY-DATA-OUTPUT,N         ,CLTEJ_NTELEFONO-CELULAR,  ,                   ,x  ,celularPhone             ,12      ,2207,2219 ,              ,
153     ,BODY-DATA-OUTPUT,N         ,CLTEJ_EMAIL_EMPRESA    ,  ,                   ,x  ,CorporationEmail         ,96      ,2219,2315 ,              ,
154     ,BODY-DATA-OUTPUT,N         ,CLTEJ_EMAIL_OPCIONAL   ,  ,                   ,   ,optionalEmail            ,96      ,2315,2411 ,              ,
155     ,BODY-DATA-OUTPUT,N         ,CLTEJ_FILLER           ,  ,                   ,x  ,                         ,4       ,2411,2415 ,              ,
156     ,BODY-DATA-OUTPUT,N         ,CLTEDIR_CINTERNO_CIC   ,  ,                   ,x  ,cinterno_cic             ,12      ,2415,2427 ,              ,
157     ,BODY-DATA-OUTPUT,N         ,CLTEDIR_NITEM_DIREC    ,  ,                   ,x  ,itemAddress              ,5       ,2427,2432 ,              ,
158     ,BODY-DATA-OUTPUT,N         ,CLTEDIR_TDIRECCION     ,  ,                   ,x  ,typeAddress              ,2       ,2432,2434 ,              ,
159     ,BODY-DATA-OUTPUT,N         ,CLTEDIR_TVIA           ,  ,                   ,x  ,typeRoad                 ,1       ,2434,2435 ,              ,
160     ,BODY-DATA-OUTPUT,N         ,CLTEDIR_AVIA           ,  ,                   ,x  ,descriptionRoad          ,60      ,2435,2495 ,              ,
161     ,BODY-DATA-OUTPUT,N         ,CLTEDIR_NNUMERO        ,  ,                   ,x  ,addressNumber            ,30      ,2495,2525 ,              ,
162     ,BODY-DATA-OUTPUT,N         ,CLTEDIR_NBLOQUE        ,  ,                   ,x  ,blockNumber              ,30      ,2525,2555 ,              ,
163     ,BODY-DATA-OUTPUT,N         ,CLTEDIR_NMANZANA       ,  ,                   ,x  ,squareNumber             ,30      ,2555,2585 ,              ,
164     ,BODY-DATA-OUTPUT,N         ,CLTEDIR_NLOTE          ,  ,                   ,x  ,lotNumber                ,30      ,2585,2615 ,              ,
165     ,BODY-DATA-OUTPUT,N         ,CLTEDIR_NPISO          ,  ,                   ,x  ,flatNumber               ,30      ,2615,2645 ,              ,
166     ,BODY-DATA-OUTPUT,N         ,CLTEDIR_NDPTO_INTER    ,  ,                   ,x  ,interiorDptNumber        ,30      ,2645,2675 ,              ,
167     ,BODY-DATA-OUTPUT,N         ,CLTEDIR_DREPORTADA     ,  ,                   ,x  ,reportedAddress          ,70      ,2675,2745 ,              ,
168     ,BODY-DATA-OUTPUT,N         ,CLTEDIR_APTO_REFEREN   ,  ,                   ,x  ,locationReference        ,96      ,2745,2841 ,              ,
169     ,BODY-DATA-OUTPUT,N         ,CLTEDIR_NAPARTADO_POST ,  ,                   ,x  ,postOfficeBox            ,25      ,2841,2866 ,              ,
170     ,BODY-DATA-OUTPUT,N         ,CLTEDIR_NTELEFONO_DIR  ,  ,                   ,x  ,addressPhoneNumber       ,12      ,2866,2878 ,              ,
171     ,BODY-DATA-OUTPUT,N         ,CLTEDIR_NANEXO_DIR     ,  ,                   ,x  ,addressAnnexPhone        ,6       ,2878,2884 ,              ,
172     ,BODY-DATA-OUTPUT,N         ,CLTEDIR_NFAX           ,  ,                   ,x  ,addressFaxPhone          ,12      ,2884,2896 ,              ,
173     ,BODY-DATA-OUTPUT,N         ,CLTEDIR_TUBIGEO        ,  ,                   ,x  ,ubigeoType               ,1       ,2896,2897 ,              ,
174     ,BODY-DATA-OUTPUT,N         ,CLTEDIR_CUBIGEO        ,  ,                   ,x  ,ubigeoCode               ,6       ,2897,2903 ,              ,
175     ,BODY-DATA-OUTPUT,N         ,CLTEDIR_GVISITA        ,  ,                   ,x  ,flagDomiciledVisit       ,1       ,2903,2904 ,              ,
176     ,BODY-DATA-OUTPUT,N         ,CLTEDIR_FVISITA        ,  ,                   ,x  ,domiciledVisitDate       ,8       ,2904,2912 ,              ,
177     ,BODY-DATA-OUTPUT,N         ,CLTEDIR_AVISITA        ,  ,                   ,x  ,homeVisitDescription     ,150     ,2912,3062 ,              ,
178     ,BODY-DATA-OUTPUT,N         ,CLTEDIR_CPOSTAL        ,  ,                   ,x  ,zipCode                  ,15      ,3062,3077 ,              ,
179     ,BODY-DATA-OUTPUT,N         ,CLTEDIR_CUBIGEO_AHORROS,  ,                   ,x  ,ubigeoAhorrosCode        ,6       ,3077,3083 ,              ,
180     ,BODY-DATA-OUTPUT,N         ,CLTEDIR_CUBIGEO_CTA_CTE,  ,                   ,x  ,ubigeoCtaCteCode         ,6       ,3083,3089 ,              ,
181     ,BODY-DATA-OUTPUT,N         ,CLTEDIR_CUBIGEO_RENIEC ,  ,                   ,x  ,ubigeoReniecCode         ,6       ,3089,3095 ,              ,
182     ,BODY-DATA-OUTPUT,N         ,CLTEDIR_CUBIGEO_SUNAT  ,  ,                   ,x  ,ubigeoSunatCode          ,6       ,3095,3101 ,              ,
183     ,BODY-DATA-OUTPUT,N         ,CLTEDIR_FINGRESO_DIR   ,  ,                   ,x  ,inputDate                ,8       ,3101,3109 ,              ,
184     ,BODY-DATA-OUTPUT,N         ,CLTEDIR_FULTMODIF_DIR  ,  ,                   ,x  ,lastChangeDateSecond     ,8       ,3109,3117 ,              ,
185     ,BODY-DATA-OUTPUT,N         ,CLTEDIR_BSITUACION     ,  ,                   ,   ,stateAddress             ,1       ,3117,3118 ,              ,
186     ,BODY-DATA-OUTPUT,N         ,CLTEDIR_FILLER         ,  ,                   ,   ,                         ,59      ,3118,3177 ,              ,
187     ,BODY-DATA-OUTPUT,N         ,CLTEIND_CINTERNO_CIC   ,  ,                   ,   ,                         ,12      ,3177,3189 ,              ,
188     ,BODY-DATA-OUTPUT,N         ,CLTEIND_CESTADO_CVC    ,  ,                   ,   ,lifeCycleVidaClientState ,1       ,3189,3190 ,              ,
189     ,BODY-DATA-OUTPUT,N         ,CLTEIND_CRAZON_ALTA    ,  ,                   ,   ,creationReasonCode       ,3       ,3190,3193 ,              ,
190     ,BODY-DATA-OUTPUT,N         ,CLTEIND_CSITC_ECON     ,  ,                   ,   ,economicSituationCode    ,2       ,3193,3195 ,              ,
191     ,BODY-DATA-OUTPUT,N         ,CLTEIND_FPRIM_ACRDO    ,  ,                   ,   ,firstAgreementDate       ,8       ,3195,3203 ,              ,
192     ,BODY-DATA-OUTPUT,N         ,CLTEIND_GPROTEC_DATOS  ,  ,                   ,   ,flagDataProtected        ,1       ,3203,3204 ,              ,
193     ,BODY-DATA-OUTPUT,N         ,CLTEIND_GNO_PUBLICIDAD ,  ,                   ,   ,flagPublicity            ,1       ,3204,3205 ,              ,
194     ,BODY-DATA-OUTPUT,N         ,CLTEIND_GSESION_TERC   ,  ,                   ,   ,flagCesionOthers         ,1       ,3205,3206 ,              ,
195     ,BODY-DATA-OUTPUT,N         ,CLTEIND_GACCESO-RSTRG  ,  ,                   ,   ,flagRestrictedAccess     ,1       ,3206,3207 ,              ,
196     ,BODY-DATA-OUTPUT,N         ,CLTEIND_GVIP           ,  ,                   ,   ,flagVIP                  ,1       ,3207,3208 ,              ,
197     ,BODY-DATA-OUTPUT,N         ,CLTEIND_GLST_NGR       ,  ,                   ,   ,flagBlackList            ,1       ,3208,3209 ,              ,
198     ,BODY-DATA-OUTPUT,N         ,CLTEIND-TRAT-ESP       ,  ,                   ,   ,flagSpecialTrat          ,1       ,3209,3210 ,              ,
199     ,BODY-DATA-OUTPUT,N         ,CLTEIND-BLQ-CL         ,  ,                   ,   ,flagClteBlock            ,1       ,3210,3211 ,              ,
200     ,BODY-DATA-OUTPUT,N         ,CLTEIND-GTOCKEN        ,  ,                   ,   ,flagToken                ,1       ,3211,3212 ,              ,
201     ,BODY-DATA-OUTPUT,N         ,CLTEIND-GBCELULAR      ,  ,                   ,   ,flagBankMovil            ,1       ,3212,3213 ,              ,
202     ,BODY-DATA-OUTPUT,N         ,CLTE-FECHA-PACTO       ,  ,                   ,   ,firstAgreementDateSecond ,8       ,3213,3221 ,              ,
203     ,BODY-DATA-OUTPUT,N         ,CLTE-ADEPARTAMENTO-AHOR,  ,                   ,   ,                         ,50      ,3221,3271 ,              ,
204     ,BODY-DATA-OUTPUT,N         ,CLTE-APROVINCIA-AHOR   ,  ,                   ,   ,                         ,50      ,3271,3321 ,              ,
205     ,BODY-DATA-OUTPUT,N         ,CLTE-ADISTRITO-AHOR    ,  ,                   ,   ,                         ,50      ,3321,3371 ,              ,
206     ,BODY-DATA-OUTPUT,N         ,CLTE-ADEPARTAMENTO-CTCT,  ,                   ,   ,                         ,50      ,3371,3421 ,              ,
207     ,BODY-DATA-OUTPUT,N         ,CLTE-APROVINCIA-CTCT   ,  ,                   ,   ,                         ,50      ,3421,3471 ,              ,
208     ,BODY-DATA-OUTPUT,N         ,CLTE-ADISTRITO-CTCT    ,  ,                   ,   ,                         ,50      ,3471,3521 ,              ,
209     ,BODY-DATA-OUTPUT,N         ,CLTE-FILLER DIR        ,  ,                   ,   ,                         ,6690    ,3521,10211,              ,